; Engine configuration file.
; It's best edited using the editor UI and not directly,
; since the parameters that go here are not all obvious.
;
; Format:
;   [section] ; section goes between []
;   param=value ; assign values to parameters

config_version=5

[application]

config/name="gitlab-godot4-itch.io"
run/main_scene="res://game.tscn"
config/features=PackedStringArray("4.2", "Forward Plus")
config/icon="res://assets/icon.svg"

[display]

window/energy_saving/keep_screen_on=false
window/stretch/mode="viewport"
window/stretch/aspect="ignore"

[rendering]

environment/defaults/default_clear_color=Color(0.446299, 0.30468, 0.538311, 1)
